[
  {
    "model": "teams.team",
    "pk": 1,
    "fields": {
        "name":"Arka Gdynia"

    }
  } ,
  {
    "model": "teams.team",
    "pk": 2,
    "fields": {
        "name":"Bruk-Bet Termalica Nieciecza"

    }
  },
  {
    "model": "teams.team",
    "pk": 3,
    "fields": {
        "name":"Cracovia"

    }
  },
  {
    "model": "teams.team",
    "pk": 4,
    "fields": {
        "name":"Górnik Łęczna"

    }
  },
  {
    "model": "teams.team",
    "pk": 5,
    "fields": {
        "name":"Jagiellonia Białystok"

    }
  },
  {
    "model": "teams.team",
    "pk": 6,
    "fields": {
        "name":"Korona Kielce"

    }
  },
  {
    "model": "teams.team",
    "pk": 7,
    "fields": {
        "name":"Lech Poznań"

    }
  },
  {
    "model": "teams.team",
    "pk": 8,
    "fields": {
        "name":"Lechia Gdańsk"

    }
  },
  {
    "model": "teams.team",
    "pk": 9,
    "fields": {
        "name":"Legia Warszawa"

    }
  },
  {
    "model": "teams.team",
    "pk": 10,
    "fields": {
        "name":"Piast Gliwice"

    }
  },
  {
    "model": "teams.team",
    "pk": 11,
    "fields": {
        "name":"Pogoń Szczecin"

    }
  },
  {
    "model": "teams.team",
    "pk": 12,
    "fields": {
        "name":"Ruch Chorzów"

    }
  },
  {
    "model": "teams.team",
    "pk": 13,
    "fields": {
        "name":"Śląsk Wrocław"

    }
  },
  {
    "model": "teams.team",
    "pk": 14,
    "fields": {
        "name":"Wisła Kraków"

    }
  },
  {
    "model": "teams.team",
    "pk": 15,
    "fields": {
        "name":"Wisła Płock"

    }
  },
  {
    "model": "teams.team",
    "pk": 16,
    "fields": {
        "name":"KGHM Zagłębie Lubin"

    }
  }
]